{
    "project_name": "project_name",
    "repo_name": "{{ cookiecutter.project_name.lower().replace(' ', '_') }}",
    "author_name": "Your name (or your organization/company/team)",
    "description": "A short description of the project.",
    "open_source_license": ["MIT", "BSD-3-Clause", "No license file"],
    "s3_bucket": "[OPTIONAL] your bucket and folder for s3, as you would use it with the aws cli. Do not include a trailing / in the url. For example s3://foo/bar"
}
